…
    ## Warning: package 'glmnet' was built under R version 4.0.5

    ## Loading required package: Matrix

    ## 
    ## Attaching package: 'Matrix'

    ## The following objects are masked from 'package:tidyr':
    ## 
    ##     expand, pack, unpack

    ## Loaded glmnet 4.1-1

    ## # A tibble: 32 x 3
    ##    term        estimate penalty
    ##    <chr>          <dbl>   <dbl>
    ##  1 (Intercept)    4.63      0.1
    ##  2 fantastic      1.13      0.1
    ##  3 amazing        0.805     0.1
    ##  4 relaxing       0.768     0.1
    ##  5 complaining    0.734     0.1
    ##  6 charming       0.731     0.1
    ##  7 awesome        0.722     0.1
    ##  8 recommend      0.712     0.1
    ##  9 perfect        0.689     0.1
    ## 10 great          0.615     0.1
    ## # ... with 22 more rows
…
lasso_wf <- finalize_workflow(
  wf %>% add_model(final_lasso_model),
  lasso_best_tune
)

lasso_wf %>% 
  fit(tidy_train) %>%
  pull_workflow_fit() %>% 
  tidy() %>% 
  filter(estimate > 0.15) %>% 
  mutate(term = str_remove(term, "tf_text_")) %>% 
  arrange(-estimate)
```

    ## # A tibble: 40 x 3
    ##    term        estimate penalty
    ##    <chr>          <dbl>   <dbl>
    ##  1 (Intercept)    4.65   0.0774
    ##  2 fantastic      1.17   0.0774
    ##  3 amazing        0.821  0.0774
    ##  4 awesome        0.814  0.0774
    ##  5 recommend      0.798  0.0774
    ##  6 relaxing       0.757  0.0774
    ##  7 complaining    0.754  0.0774
    ##  8 charming       0.725  0.0774
    ##  9 perfect        0.689  0.0774
    ## 10 juego          0.664  0.0774
    ## # ... with 30 more rows
…
